Lab 2/syynccount_tb.vcd
$date
	Sun Sep 21 22:06:40 2025
$end
$version
	Icarus Verilog
$end
$timescale
	1s
$end
$scope module syynccount_tb $end
$var wire 2 ! trafficstate [1:0] $end
$var wire 3 " count [2:0] $end
$var reg 1 # clk $end
$var reg 1 $ reset $end
$scope module uut $end
$var wire 1 # clk $end
$var wire 1 $ reset $end
$var wire 3 % countY [2:0] $end
$var wire 3 & countX [2:0] $end
$var parameter 32 ' X $end
$var parameter 32 ( Y $end
$var parameter 2 ) s0 $end
$var parameter 2 * s1 $end
$var reg 3 + counter [2:0] $end
$var reg 2 , curr_state [1:0] $end
$var reg 1 - enable $end
$var reg 2 . next_state [1:0] $end
$var reg 2 / traffic_state [1:0] $end
$scope module counterX $end
$var wire 1 # clk $end
$var wire 1 - enable $end
$var wire 1 0 mode $end
$var wire 1 1 reset $end
$var wire 3 2 reg_out [2:0] $end
$var parameter 32 3 X $end
$var reg 3 4 count_out [2:0] $end
$upscope $end
$scope module counterY $end
$var wire 1 # clk $end
$var wire 1 - enable $end
$var wire 1 5 mode $end
$var wire 1 6 reset $end
$var wire 3 7 reg_out [2:0] $end
$var parameter 32 8 X $end
$var reg 3 9 count_out [2:0] $end
$upscope $end
$upscope $end
$upscope $end
$enddefinitions $end
$comment Show the parameter values. $end
$dumpall
b101 8
b110 3
b10 *
b1 )
b101 (
b110 '
$end
#0
$dumpvars
bx 9
b101 7
16
05
bx 4
b110 2
11
00
bx /
bx .
x-
bx ,
bx +
bx &
bx %
1$
0#
bx "
bx !
$end
#5
b110 "
b110 +
b1 !
b1 /
1-
b1 .
b110 &
b110 4
b101 %
b101 9
b1 ,
1#
#10
0#
#15
1#
#20
b101 2
b100 7
01
06
0#
0$
#25
b100 2
b11 7
b101 "
b101 +
b101 &
b101 4
b100 %
b100 9
1#
#30
0#
#35
b10 7
b11 2
b100 "
b100 +
b11 %
b11 9
b100 &
b100 4
1#
#40
0#
#45
b10 2
b1 7
b11 "
b11 +
b11 &
b11 4
b10 %
b10 9
1#
#50
0#
#55
b0 7
b1 2
b10 "
b10 +
b1 %
b1 9
b10 &
b10 4
1#
#60
0#
#65
b0 2
b111 7
b1 "
b1 +
b1 &
b1 4
b0 %
b0 9
1#
#70
0#
#75
b110 7
b111 2
b0 "
b0 +
b10 .
b111 %
b111 9
b0 &
b0 4
1#
#80
0#
#85
b110 2
b101 7
b110 "
b110 +
b10 !
b10 /
b111 &
b111 4
b110 %
b110 9
b10 ,
1#
#90
0#
#95
b100 7
b101 2
b101 "
b101 +
b101 %
b101 9
b110 &
b110 4
1#
#100
0#
#105
b100 2
b11 7
b100 "
b100 +
b101 &
b101 4
b100 %
b100 9
1#
#110
0#
#115
b10 7
b11 2
b11 "
b11 +
b11 %
b11 9
b100 &
b100 4
1#
#120
0#
#125
b10 2
b1 7
b10 "
b10 +
b11 &
b11 4
b10 %
b10 9
1#
#130
0#
#135
b0 7
b1 2
b1 "
b1 +
b1 %
b1 9
b10 &
b10 4
1#
#140
0#
#145
b0 2
b111 7
b1 .
b0 "
b0 +
b1 &
b1 4
b0 %
b0 9
1#
#150
0#
#155
b110 7
b111 2
b1 !
b1 /
b10 .
b1 ,
b111 %
b111 9
b0 &
b0 4
1#
#160
0#
#165
b110 2
b101 7
b110 "
b110 +
b10 !
b10 /
b111 &
b111 4
b110 %
b110 9
b10 ,
1#
#170
0#
#175
b100 7
b101 2
b101 "
b101 +
b101 %
b101 9
b110 &
b110 4
1#
#180
0#
#185
b100 2
b11 7
b100 "
b100 +
b101 &
b101 4
b100 %
b100 9
1#
#190
0#
#195
b10 7
b11 2
b11 "
b11 +
b11 %
b11 9
b100 &
b100 4
1#
#200
0#
#205
b10 2
b1 7
b10 "
b10 +
b11 &
b11 4
b10 %
b10 9
1#
#210
0#
#215
b0 7
b1 2
b1 "
b1 +
b1 %
b1 9
b10 &
b10 4
1#
#220
0#
#225
b0 2
b111 7
b1 .
b0 "
b0 +
b1 &
b1 4
b0 %
b0 9
1#
#230
0#
#235
b110 7
b111 2
b1 !
b1 /
b10 .
b1 ,
b111 %
b111 9
b0 &
b0 4
1#
#240
0#
#245
b110 2
b101 7
b110 "
b110 +
b10 !
b10 /
b111 &
b111 4
b110 %
b110 9
b10 ,
1#
#250
0#
#255
b100 7
b101 2
b101 "
b101 +
b101 %
b101 9
b110 &
b110 4
1#
#260
0#
#265
b100 2
b11 7
b100 "
b100 +
b101 &
b101 4
b100 %
b100 9
1#
#270
0#
#275
b10 7
b11 2
b11 "
b11 +
b11 %
b11 9
b100 &
b100 4
1#
#280
0#
#285
b10 2
b1 7
b10 "
b10 +
b11 &
b11 4
b10 %
b10 9
1#
#290
0#
#295
b0 7
b1 2
b1 "
b1 +
b1 %
b1 9
b10 &
b10 4
1#
#300
0#
#305
b0 2
b111 7
b1 .
b0 "
b0 +
b1 &
b1 4
b0 %
b0 9
1#
#310
0#
#315
b110 7
b111 2
b1 !
b1 /
b10 .
b1 ,
b111 %
b111 9
b0 &
b0 4
1#
#320
0#
#325
b110 2
b101 7
b110 "
b110 +
b10 !
b10 /
b111 &
b111 4
b110 %
b110 9
b10 ,
1#
#330
0#
#335
b100 7
b101 2
b101 "
b101 +
b101 %
b101 9
b110 &
b110 4
1#
#340
0#
#345
b100 2
b11 7
b100 "
b100 +
b101 &
b101 4
b100 %
b100 9
1#
#350
0#
#355
b10 7
b11 2
b11 "
b11 +
b11 %
b11 9
b100 &
b100 4
1#
#360
0#
#365
b10 2
b1 7
b10 "
b10 +
b11 &
b11 4
b10 %
b10 9
1#
#370
0#
#375
b0 7
b1 2
b1 "
b1 +
b1 %
b1 9
b10 &
b10 4
1#
#380
0#
#385
b0 2
b111 7
b1 .
b0 "
b0 +
b1 &
b1 4
b0 %
b0 9
1#
#390
0#
#395
b110 7
b111 2
b1 !
b1 /
b10 .
b1 ,
b111 %
b111 9
b0 &
b0 4
1#
#400
0#
#405
b110 2
b101 7
b110 "
b110 +
b10 !
b10 /
b111 &
b111 4
b110 %
b110 9
b10 ,
1#
#410
0#
#415
b100 7
b101 2
b101 "
b101 +
b101 %
b101 9
b110 &
b110 4
1#
#420
0#
#425
b100 2
b11 7
b100 "
b100 +
b101 &
b101 4
b100 %
b100 9
1#
#430
0#
#435
b10 7
b11 2
b11 "
b11 +
b11 %
b11 9
b100 &
b100 4
1#
#440
0#
#445
b10 2
b1 7
b10 "
b10 +
b11 &
b11 4
b10 %
b10 9
1#
#450
0#
#455
b0 7
b1 2
b1 "
b1 +
b1 %
b1 9
b10 &
b10 4
1#
#460
0#
#465
b0 2
b111 7
b1 .
b0 "
b0 +
b1 &
b1 4
b0 %
b0 9
1#
#470
0#
#475
b110 7
b111 2
b1 !
b1 /
b10 .
b1 ,
b111 %
b111 9
b0 &
b0 4
1#
#480
0#
#485
b110 2
b101 7
b110 "
b110 +
b10 !
b10 /
b111 &
b111 4
b110 %
b110 9
b10 ,
1#
#490
0#
#495
b100 7
b101 2
b101 "
b101 +
b101 %
b101 9
b110 &
b110 4
1#
#500
0#
#505
b100 2
b11 7
b100 "
b100 +
b101 &
b101 4
b100 %
b100 9
1#
#510
0#
#515
b10 7
b11 2
b11 "
b11 +
b11 %
b11 9
b100 &
b100 4
1#
#520
b110 2
b101 7
11
16
0#
1$
#525
b1 .
b110 "
b110 +
b1 !
b1 /
b110 &
b110 4
b101 %
b101 9
b1 ,
1#
#530
b101 2
b100 7
01
06
0#
0$
#535
b11 7
b100 2
b101 "
b101 +
b100 %
b100 9
b101 &
b101 4
1#
#540
0#
#545
b11 2
b10 7
b100 "
b100 +
b100 &
b100 4
b11 %
b11 9
1#
#550
0#
#555
b1 7
b10 2
b11 "
b11 +
b10 %
b10 9
b11 &
b11 4
1#
#560
0#
#565
b1 2
b0 7
b10 "
b10 +
b10 &
b10 4
b1 %
b1 9
1#
#570
0#
#575
b111 7
b0 2
b1 "
b1 +
b0 %
b0 9
b1 &
b1 4
1#
#580
0#
#585
b111 2
b110 7
b10 .
b0 "
b0 +
b0 &
b0 4
b111 %
b111 9
1#
#590
0#
#595
b101 7
b110 2
b110 "
b110 +
b10 !
b10 /
b10 ,
b110 %
b110 9
b111 &
b111 4
1#
#600
0#
#605
b101 2
b100 7
b101 "
b101 +
b110 &
b110 4
b101 %
b101 9
1#
#610
0#
#615
b11 7
b100 2
b100 "
b100 +
b100 %
b100 9
b101 &
b101 4
1#
#620
0#
#625
b11 2
b10 7
b11 "
b11 +
b100 &
b100 4
b11 %
b11 9
1#
#630
0#
#635
b1 7
b10 2
b10 "
b10 +
b10 %
b10 9
b11 &
b11 4
1#
#640
0#
#645
b1 2
b0 7
b1 "
b1 +
b10 &
b10 4
b1 %
b1 9
1#
#650
0#
#655
b111 7
b0 2
b0 "
b0 +
b1 .
b0 %
b0 9
b1 &
b1 4
1#
#660
0#
#665
b111 2
b110 7
b10 .
b1 !
b1 /
b0 &
b0 4
b111 %
b111 9
b1 ,
1#
#670
0#
#675
b101 7
b110 2
b110 "
b110 +
b10 !
b10 /
b10 ,
b110 %
b110 9
b111 &
b111 4
1#
#680
0#
#685
b101 2
b100 7
b101 "
b101 +
b110 &
b110 4
b101 %
b101 9
1#
#690
0#
#695
b11 7
b100 2
b100 "
b100 +
b100 %
b100 9
b101 &
b101 4
1#
#700
0#
#705
b11 2
b10 7
b11 "
b11 +
b100 &
b100 4
b11 %
b11 9
1#
#710
0#
#715
b1 7
b10 2
b10 "
b10 +
b10 %
b10 9
b11 &
b11 4
1#
#720
0#
#725
b1 2
b0 7
b1 "
b1 +
b10 &
b10 4
b1 %
b1 9
1#
#730
0#
#735
b111 7
b0 2
b0 "
b0 +
b1 .
b0 %
b0 9
b1 &
b1 4
1#
#740
0#
#745
b111 2
b110 7
b10 .
b1 !
b1 /
b0 &
b0 4
b111 %
b111 9
b1 ,
1#
#750
0#
#755
b101 7
b110 2
b110 "
b110 +
b10 !
b10 /
b10 ,
b110 %
b110 9
b111 &
b111 4
1#
#760
0#
#765
b101 2
b100 7
b101 "
b101 +
b110 &
b110 4
b101 %
b101 9
1#
#770
0#
#775
b11 7
b100 2
b100 "
b100 +
b100 %
b100 9
b101 &
b101 4
1#
#780
0#
#785
b11 2
b10 7
b11 "
b11 +
b100 &
b100 4
b11 %
b11 9
1#
#790
0#
#795
b1 7
b10 2
b10 "
b10 +
b10 %
b10 9
b11 &
b11 4
1#
#800
0#
#805
b1 2
b0 7
b1 "
b1 +
b10 &
b10 4
b1 %
b1 9
1#
#810
0#
#815
b111 7
b0 2
b0 "
b0 +
b1 .
b0 %
b0 9
b1 &
b1 4
1#
#820
0#
#825
b111 2
b110 7
b10 .
b1 !
b1 /
b0 &
b0 4
b111 %
b111 9
b1 ,
1#
